(연구) HST example 3 | 신록예찬’s 블로그
…
df<-tibble(V)
df$f<-as.vector(f) 
df$divlink<-0
df$conlink<-0
df$link<-0
for(i in 1:23){
    df$divlink[i]<-sum(W[i,])
    df$conlink[i]<-sum(W[,i])
    df$link[i]<-(sum(W[i,])+sum(W[,i]))/2
}
df$type<-rep('solo',23)
df[V %in% c("The Avengers" ,"Avengers: Age of Ultron","Captain America: Civil War","Avengers: Infinity War","Avengers: Endgame"),'type']='multi'
df

# A tibble: 23 × 6
   V                                       f divlink conlink  link type 
   <chr>                               <dbl>   <dbl>   <dbl> <dbl> <chr>
 1 Iron Man                             585.    4      2.52  3.26  solo 
 2 The Incredible Hulk                  263.    1      0.295 0.647 solo 
 3 Iron Man 2                           624.    4.15   3.11  3.63  solo 
 4 Thor                                 449.    2.56   2.24  2.40  solo 
 5 Captain America: The First Avenger   371.    1.75   0.948 1.35  solo 
 6 The Avengers                        1519.    4.65   4.33  4.49  multi
 7 Iron Man 3                          1215.    3.2    1.69  2.45  solo 
 8 Thor: The Dark World                 645.    2.41   2.15  2.28  solo 
 9 Captain America: The Winter Soldier  714.    3.27   2.46  2.86  solo 
10 Guardians of the Galaxy              773.    1.63   1.21  1.42  solo 
# … with 13 more rows
…
%%R
d1<-decompose(f,WEuclid,V=V) # 0, 35000, 60000, 80000
d2<-decompose(f,Wgraph,V=V) # 0, 35000, 60000, 80000
d3<-decompose(f,Whst,V=V) # 0, 35000, 60000, 80000

d1$case<-"Euclid"
d2$case<-"Graph"
d3$case<-"HST"
.df2 <-rbind(d1,d2,d3)
.df2 %>% group_by(case,eigenvectorindex) #%>% mutate(textsize= 10*(abs(fhat)>70))
df2=merge(df, .df2 %>% group_by(case,eigenvectorindex) %>% mutate(textsize= 10*(abs(fhat)>70))) %>% as_tibble
df2

# A tibble: 1,587 × 12
   V           f divlink conlink  link type  Vindex eigenvectorindex     fhat
   <chr>   <dbl>   <dbl>   <dbl> <dbl> <chr>  <int>            <dbl>    <dbl>
 1 Ant-man  519.    1.75    1.10  1.42 solo      12                1    4.10 
 2 Ant-man  519.    1.75    1.10  1.42 solo      12                6 -142.   
 3 Ant-man  519.    1.75    1.10  1.42 solo      12               17   -1.52 
 4 Ant-man  519.    1.75    1.10  1.42 solo      12                5   61.6  
 5 Ant-man  519.    1.75    1.10  1.42 solo      12               12    0.274
 6 Ant-man  519.    1.75    1.10  1.42 solo      12               15    0.328
 7 Ant-man  519.    1.75    1.10  1.42 solo      12                8   28.4  
 8 Ant-man  519.    1.75    1.10  1.42 solo      12               22   -0.843
 9 Ant-man  519.    1.75    1.10  1.42 solo      12               18   -6.37 
10 Ant-man  519.    1.75    1.10  1.42 solo      12                2  545.   
# … with 1,577 more rows, and 3 more variables: eigenvalue <dbl>, case <chr>,
#   textsize <dbl>
…
