(연구) HST example 3 | 신록예찬’s 블로그
…
df<-tibble(V)
df$f<-as.vector(f)
df$divlink<-0
df$conlink<-0
df$link<-0
for(i in 1:23){
    df$divlink[i]<-sum(W[i,])
    df$conlink[i]<-sum(W[,i])
    df$link[i]<-(sum(W[i,])+sum(W[,i]))/2
}
df$type<-rep('solo',23)
df[V %in% c("The Avengers" ,"Avengers: Age of Ultron","Captain America: Civil War","Avengers: Infinity War","Avengers: Endgame"),'type']='multi'
df

# A tibble: 23 × 6
   V                                       f divlink conlink  link type 
   <chr>                               <dbl>   <dbl>   <dbl> <dbl> <chr>
 1 Iron Man                             585.    4      2.52  3.26  solo 
 2 The Incredible Hulk                  263.    1      0.295 0.647 solo 
 3 Iron Man 2                           624.    4.15   3.11  3.63  solo 
 4 Thor                                 449.    2.56   2.24  2.40  solo 
 5 Captain America: The First Avenger   371.    1.75   0.948 1.35  solo 
 6 The Avengers                        1519.    4.65   4.33  4.49  multi
 7 Iron Man 3                          1215.    3.2    1.69  2.45  solo 
 8 Thor: The Dark World                 645.    2.41   2.15  2.28  solo 
 9 Captain America: The Winter Soldier  714.    3.27   2.46  2.86  solo 
10 Guardians of the Galaxy              773.    1.63   1.21  1.42  solo 
# … with 13 more rows
…
div_ranges_= range(df$divlink)
con_ranges_= range(df$conlink)
df_=expand.grid(seq(div_ranges_[1]-0.1,div_ranges_[2]+0.1,by=0.1),seq(con_ranges_[1]-0.1,con_ranges_[2]+0.1,by=0.1))
names(df_)=c('divlink','conlink')
df_$f=0 
df_$V=NA
df_$link=NA
df_$type=NA
df_=tibble(V=df_$V,f=df_$f,divlink=df_$divlink,conlink=df_$conlink,link=df_$link,type=df_$type)
for(i in 1:23){
    df_[abs(df_$divlink - df[i,]$divlink)<0.1 & abs(df_$conlink - df[i,]$conlink)<0.1,] <- df[i,]
}
df_

# A tibble: 3,600 × 6
   V         f divlink conlink  link type 
   <chr> <dbl>   <dbl>   <dbl> <dbl> <chr>
 1 <NA>      0     0.8     0.1    NA <NA> 
 2 <NA>      0     0.9     0.1    NA <NA> 
 3 <NA>      0     1       0.1    NA <NA> 
 4 <NA>      0     1.1     0.1    NA <NA> 
 5 <NA>      0     1.2     0.1    NA <NA> 
 6 <NA>      0     1.3     0.1    NA <NA> 
 7 <NA>      0     1.4     0.1    NA <NA> 
 8 <NA>      0     1.5     0.1    NA <NA> 
 9 <NA>      0     1.6     0.1    NA <NA> 
10 <NA>      0     1.7     0.1    NA <NA> 
# … with 3,590 more rows
…
%%R 
df

# A tibble: 23 × 6
   V                                       f divlink conlink  link type 
   <chr>                               <dbl>   <dbl>   <dbl> <dbl> <chr>
 1 Iron Man                             585.    4       2.52 3.26  solo 
 2 The Incredible Hulk                  263.    1       0.29 0.647 solo 
 3 Iron Man 2                           624.    4.15    3.11 3.63  solo 
 4 Thor                                 449.    2.56    2.24 2.40  solo 
 5 Captain America: The First Avenger   371.    1.75    0.95 1.35  solo 
 6 The Avengers                        1519.    4.65    4.33 4.49  multi
 7 Iron Man 3                          1215.    3.2     1.69 2.45  solo 
 8 Thor: The Dark World                 645.    2.41    2.15 2.28  solo 
 9 Captain America: The Winter Soldier  714.    3.27    2.46 2.86  solo 
10 Guardians of the Galaxy              773.    1.63    1.21 1.42  solo 
# … with 13 more rows
…
